[
    {
        "link": "/",
        "text": "\n                            "
    },
    {
        "link": "/contact_us",
        "text": null
    },
    {
        "link": "/blog",
        "text": null
    },
    {
        "link": "/",
        "text": "EN"
    },
    {
        "link": "/lt",
        "text": "LT"
    },
    {
        "link": "/ru",
        "text": "RU"
    },
    {
        "link": "https://www.facebook.com/AurigaInc",
        "text": null
    },
    {
        "link": "https://twitter.com/AurigaInc",
        "text": null
    },
    {
        "link": "http://www.linkedin.com/company/auriga",
        "text": null
    },
    {
        "link": "http://www.youtube.com/user/AurigaPR",
        "text": null
    },
    {
        "link": "#",
        "text": "SERVICES & MODELS"
    },
    {
        "link": "/services-and-models/outsourced-product-development.php",
        "text": "Outsourced Product Development"
    },
    {
        "link": "/services-and-models/application-development.php",
        "text": "Application Development"
    },
    {
        "link": "/services-and-models/maintenance.php",
        "text": "Maintenance\u00a0& Sustaining Engineering"
    },
    {
        "link": "/services-and-models/re-engineering-and-porting.php",
        "text": "Re-Engineering and Porting"
    },
    {
        "link": "/services-and-models/software-testing.php",
        "text": "Software Testing"
    },
    {
        "link": "/DDC/",
        "text": "Dedicated Development Centers"
    },
    {
        "link": "/services-and-models/project-outsourcing.php",
        "text": "Fixed-Price & T&M\u00a0"
    },
    {
        "link": "/services-and-models/agile.php",
        "text": "Agile Models"
    },
    {
        "link": "/services-and-models/build-operate-transfer.php",
        "text": "Build-Operate-Transfer"
    },
    {
        "link": "#",
        "text": "EXPERTISE"
    },
    {
        "link": "/industries-and-expertise/ISV-technology-and-internet.php",
        "text": "ISV, Technology and Internet"
    },
    {
        "link": "/medical/",
        "text": "Medical Devices"
    },
    {
        "link": "/industries-and-expertise/telecom/",
        "text": "Telecom"
    },
    {
        "link": "/industries-and-expertise/automotive.php",
        "text": "Automotive"
    },
    {
        "link": "/industries-and-expertise/finance_and_banking/",
        "text": "Finance"
    },
    {
        "link": "/industries-and-expertise/public.php",
        "text": "Government"
    },
    {
        "link": "/industries-and-expertise/embedded-system-level-development.php",
        "text": "System-level & Embedded"
    },
    {
        "link": "/mobile/",
        "text": "Mobile"
    },
    {
        "link": "/industries-and-expertise/audio-video-processing.php",
        "text": "Audio/video Processing"
    },
    {
        "link": "/industries-and-expertise/cloud.php",
        "text": "Cloud"
    },
    {
        "link": "/industries-and-expertise/enterprise.php",
        "text": "Enterprise"
    },
    {
        "link": "/industries-and-expertise/web-development.php",
        "text": "Web-apps Development"
    },
    {
        "link": "/industries-and-expertise/test-automation.php",
        "text": "Test automation"
    },
    {
        "link": "/industries-and-expertise/big-data/",
        "text": "Big data"
    },
    {
        "link": "#",
        "text": "SUCCESS STORIES"
    },
    {
        "link": "/customers/case_studies/?tags=case+study",
        "text": "Case Studies"
    },
    {
        "link": "/customers/voice_of_the_customer/",
        "text": "Voice of the Customer"
    },
    {
        "link": "/customers/list/",
        "text": "List of the Customers"
    },
    {
        "link": "/DDC/Sample_DDCs/",
        "text": "Successful DDCs"
    },
    {
        "link": "#",
        "text": "WHY US"
    },
    {
        "link": "/about/why/",
        "text": "Our Approach"
    },
    {
        "link": "/about/why/",
        "text": "Thought Leadership "
    },
    {
        "link": "/about/recognition/",
        "text": "Awards & Recognition"
    },
    {
        "link": "#",
        "text": "COMPANY"
    },
    {
        "link": "/about/about.php",
        "text": "About Auriga"
    },
    {
        "link": "/about/executive_management/",
        "text": "Management"
    },
    {
        "link": "/about/facts_and_milestones/2016/",
        "text": "History"
    },
    {
        "link": "/about/recognition/",
        "text": "Awards & Recognition"
    },
    {
        "link": "/press_room/",
        "text": "News releases"
    },
    {
        "link": "/press_room/?archive=Y",
        "text": "Archive"
    },
    {
        "link": "/press_room/?news_DATE_ACTIVE_FROM_1_DAYS_TO_BACK=555&news_pf%5BTYPE%5D=13&set_filter=Y",
        "text": "Events "
    },
    {
        "link": "http://www.auriga.com/blog/",
        "text": "Blog"
    },
    {
        "link": "/career_center/join_us/",
        "text": "Join Us"
    },
    {
        "link": "http://hr.auriga.ru/",
        "text": "Career Center in Russia"
    },
    {
        "link": "/Company/locations.php",
        "text": "Office Locations"
    },
    {
        "link": "/contact_us/",
        "text": "Contact Us"
    },
    {
        "link": "/services-and-models",
        "text": "SERVICES & MODELS"
    },
    {
        "link": "/industries-and-expertise",
        "text": "EXPERTISE"
    },
    {
        "link": "/customers/case_studies/?tags=case+study",
        "text": "SUCCESS STORIES"
    },
    {
        "link": "/about/why",
        "text": "WHY US"
    },
    {
        "link": "/about/about.php",
        "text": "COMPANY"
    },
    {
        "link": "#",
        "text": "EN"
    },
    {
        "link": "/ru",
        "text": "RU"
    },
    {
        "link": "/lt",
        "text": "LT"
    },
    {
        "link": "#~",
        "text": null
    },
    {
        "link": "#~",
        "text": null
    },
    {
        "link": "/medical/",
        "text": "\t\n                    "
    },
    {
        "link": "/expertise/big-data/",
        "text": "\n                    "
    },
    {
        "link": "/auriga_baltics",
        "text": "\t\n                    "
    },
    {
        "link": "/crm/",
        "text": "\t\n                    "
    },
    {
        "link": "/DDC",
        "text": "\n                "
    },
    {
        "link": "/medical",
        "text": "\n                "
    },
    {
        "link": "/industries-and-expertise/embedded-system-level-development.php",
        "text": "\n                "
    },
    {
        "link": "/mobile",
        "text": "\n                "
    },
    {
        "link": "/about/recognition/",
        "text": "World\u2019s #1"
    },
    {
        "link": "/DDC/",
        "text": "dedicated teams"
    },
    {
        "link": "/services-and-models/project-outsourcing.php",
        "text": "projects"
    },
    {
        "link": "/services-and-models/outsourced-product-development.php",
        "text": "software development"
    },
    {
        "link": "/services-and-models/maintenance.php",
        "text": "sustaining engineering"
    },
    {
        "link": "/services-and-models/software-testing.php",
        "text": "software testing"
    },
    {
        "link": "/about/why/",
        "text": "Refreshingly different"
    },
    {
        "link": "/about/why/",
        "text": "added value"
    },
    {
        "link": "/about/",
        "text": null
    },
    {
        "link": "/about/recognition/",
        "text": null
    },
    {
        "link": "/about/why/",
        "text": null
    },
    {
        "link": "/customers/list/index.php#DG",
        "text": null
    },
    {
        "link": "/customers/list/index.php#DRAEGER",
        "text": null
    },
    {
        "link": "/customers/list/index.php#CHRYSLER",
        "text": null
    },
    {
        "link": "/customers/list/index.php#IBM",
        "text": null
    },
    {
        "link": "/customers/list/index.php#LW",
        "text": null
    },
    {
        "link": "/customers/list/index.php#MINDRAY",
        "text": null
    },
    {
        "link": "/customers/list/",
        "text": null
    },
    {
        "link": "/customers/case_studies/?tags=case+study",
        "text": null
    },
    {
        "link": "/about/recognition",
        "text": "\t\t\t\t\t\t \t\t\t\t\t \t\t\t\t \t\t\t\n                        "
    },
    {
        "link": "press_room/1301/",
        "text": "\n\n\t\t\t\n\t\t"
    },
    {
        "link": "press_room/1295/",
        "text": "\n\n\t\t\t\n\t\t"
    },
    {
        "link": "press_room/1298/",
        "text": "\n\n\t\t\t\n\t\t"
    },
    {
        "link": "/press_room/news_DATE_ACTIVE_FROM_1_DAYS_TO_BACK=365&news_pf%5BTYPE%5D=10&set_filter=Y",
        "text": "\n                            "
    },
    {
        "link": "/blog/",
        "text": "\n                            "
    },
    {
        "link": "#~",
        "text": null
    },
    {
        "link": "#~",
        "text": null
    },
    {
        "link": "/customers/voice_of_the_customer/",
        "text": "\t"
    },
    {
        "link": "#",
        "text": "contact us"
    },
    {
        "link": "/about/about.php",
        "text": " Overview "
    },
    {
        "link": "/about/executive_management/",
        "text": "Management"
    },
    {
        "link": "/about/facts_and_milestones/2016/",
        "text": "History"
    },
    {
        "link": "/about/recognition/",
        "text": "Awards & Recognition"
    },
    {
        "link": "/press_room/",
        "text": "Press-room"
    },
    {
        "link": "/services-and-models/outsourced-product-development.php",
        "text": "Outsourced Product Development"
    },
    {
        "link": "/services-and-models/application-development.php",
        "text": "Application Development"
    },
    {
        "link": "/services-and-models/maintenance.php",
        "text": "Maintenance\u00a0& Sustaining Engineering"
    },
    {
        "link": "/services-and-models/re-engineering-and-porting.php",
        "text": "Re-Engineering and Porting"
    },
    {
        "link": "/services-and-models/software-testing.php",
        "text": "Software Testing"
    },
    {
        "link": "/DDC/",
        "text": "Dedicated Development Centers"
    },
    {
        "link": "/services-and-models/project-outsourcing.php",
        "text": "Fixed-Price and T&M\u00a0"
    },
    {
        "link": "/services-and-models/agile.php",
        "text": "Agile Models"
    },
    {
        "link": "/services-and-models/build-operate-transfer.php",
        "text": "Build-Operate-Transfer"
    },
    {
        "link": "/industries-and-expertise/embedded-system-level-development.php",
        "text": "Embedded &\u00a0System-Level"
    },
    {
        "link": "/domain_expertise/system_level_software/",
        "text": "\u00a0"
    },
    {
        "link": "/mobile/",
        "text": "Mobile"
    },
    {
        "link": "/industries-and-expertise/audio-video-processing.php",
        "text": "Audio/Video\u00a0Processing"
    },
    {
        "link": "/industries-and-expertise/cloud.php",
        "text": "Cloud Services"
    },
    {
        "link": "/industries-and-expertise/enterprise.php",
        "text": "Enterprise"
    },
    {
        "link": "/industries-and-expertise/big-data",
        "text": "Big Data"
    },
    {
        "link": "/industries-and-expertise/ISV-technology-and-internet.php",
        "text": " ISV, Technology & Internet "
    },
    {
        "link": "/medical/",
        "text": "Medical\u00a0Devices"
    },
    {
        "link": "/industries-and-expertise/telecom/",
        "text": "Telecom"
    },
    {
        "link": "/industries-and-expertise/automotive.php",
        "text": "Automotive"
    },
    {
        "link": "/industries-and-expertise/finance_and_banking/",
        "text": "Financial\u00a0"
    },
    {
        "link": "/industries-and-expertise/public.php",
        "text": "Government"
    },
    {
        "link": "/terms_of_use/",
        "text": "Terms of Use"
    },
    {
        "link": "/privacy/",
        "text": "Privacy"
    },
    {
        "link": "/site_map/",
        "text": "Site Map"
    }
]